-------------------------------------------------------------------------------
Test set: com.bosssoft.hr.train.j2se.basic.example.xml.DOMOperationTest
-------------------------------------------------------------------------------
Tests run: 4, Failures: 0, Errors: 0, Skipped: 0, Time elapsed: 0.1 sec
