-------------------------------------------------------------------------------
Test set: com.bosssoft.hr.train.j2se.basic.example.collection.TreeSetExampleImplTest
-------------------------------------------------------------------------------
Tests run: 9, Failures: 0, Errors: 0, Skipped: 0, Time elapsed: 0.005 sec
