-------------------------------------------------------------------------------
Test set: com.bosssoft.hr.train.j2se.basic.example.collection.ConcurrentHashMapExampleImplTest
-------------------------------------------------------------------------------
Tests run: 7, Failures: 0, Errors: 0, Skipped: 0, Time elapsed: 0.01 sec
