-------------------------------------------------------------------------------
Test set: com.bosssoft.hr.train.j2se.basic.example.collection.QueueExampleImplTest
-------------------------------------------------------------------------------
Tests run: 6, Failures: 0, Errors: 0, Skipped: 0, Time elapsed: 0.002 sec
