<?xml version="1.0" encoding="UTF-8" ?>
<testsuite tests="14" failures="0" name="com.bosssoft.hr.train.j2se.basic.example.collection.LinkedListExampleImplTest" time="0.005" errors="0" skipped="0">
  <properties>
    <property name="java.runtime.name" value="Java(TM) SE Runtime Environment"/>
    <property name="sun.boot.library.path" value="C:\Program Files\Java\jdk1.8.0_241\jre\bin"/>
    <property name="java.vm.version" value="25.241-b07"/>
    <property name="java.vm.vendor" value="Oracle Corporation"/>
    <property name="maven.multiModuleProjectDirectory" value="D:\wendang\ideaworkplace\bosssoft-train-example\example-parent"/>
    <property name="java.vendor.url" value="http://java.oracle.com/"/>
    <property name="path.separator" value=";"/>
    <property name="guice.disable.misplaced.annotation.check" value="true"/>
    <property name="java.vm.name" value="Java HotSpot(TM) 64-Bit Server VM"/>
    <property name="file.encoding.pkg" value="sun.io"/>
    <property name="user.script" value=""/>
    <property name="user.country" value="CN"/>
    <property name="sun.java.launcher" value="SUN_STANDARD"/>
    <property name="sun.os.patch.level" value=""/>
    <property name="java.vm.specification.name" value="Java Virtual Machine Specification"/>
    <property name="user.dir" value="D:\wendang\ideaworkplace\bosssoft-train-example\example-parent"/>
    <property name="java.runtime.version" value="1.8.0_241-b07"/>
    <property name="java.awt.graphicsenv" value="sun.awt.Win32GraphicsEnvironment"/>
    <property name="java.endorsed.dirs" value="C:\Program Files\Java\jdk1.8.0_241\jre\lib\endorsed"/>
    <property name="os.arch" value="amd64"/>
    <property name="java.io.tmpdir" value="C:\Users\ZYZ101~1\AppData\Local\Temp\"/>
    <property name="line.separator" value="
"/>
    <property name="java.vm.specification.vendor" value="Oracle Corporation"/>
    <property name="user.variant" value=""/>
    <property name="os.name" value="Windows 10"/>
    <property name="maven.ext.class.path" value="D:\software\IntelliJ IDEA 2019.3.3\plugins\maven\lib\maven-event-listener.jar"/>
    <property name="classworlds.conf" value="D:\software\SSM\apache-maven-3.3.9-bin\apache-maven-3.3.9\bin\m2.conf"/>
    <property name="sun.jnu.encoding" value="GBK"/>
    <property name="java.library.path" value="C:\Program Files\Java\jdk1.8.0_241\bin;C:\WINDOWS\Sun\Java\bin;C:\WINDOWS\system32;C:\WINDOWS;D:\software\oracle\install\product\11.2.0\dbhome_1\bin;C:\Program Files (x86)\Intel\iCLS Client\;C:\Program Files\Intel\iCLS Client\;C:\Windows\system32;C:\Windows;C:\Windows\System32\Wbem;C:\Windows\System32\WindowsPowerShell\v1.0\;C:\Program Files (x86)\NVIDIA Corporation\PhysX\Common;C:\Program Files (x86)\Intel\Intel(R) Management Engine Components\DAL;C:\Program Files\Intel\Intel(R) Management Engine Components\DAL;C:\Program Files (x86)\Intel\Intel(R) Management Engine Components\IPT;C:\Program Files\Intel\Intel(R) Management Engine Components\IPT;C:\WINDOWS\system32;C:\WINDOWS;C:\WINDOWS\System32\Wbem;C:\WINDOWS\System32\WindowsPowerShell\v1.0\;C:\WINDOWS\System32\OpenSSH\;C:\Program Files\Java\jdk-11.0.7\bin;C:\Program Files\scala\scala-2.11.12\bin;D:\software\SSM\apache-maven-3.3.9-bin\apache-maven-3.3.9\bin;D:\software\hadoop-2.7.1\bin;D:\software\tomcat\apache-tomcat-8.5.34\lib;D:\software\tomcat\apache-tomcat-8.5.34\bin;D:\software\Git\cmd;C:\Program Files (x86)\Windows Kits\8.1\Windows Performance Toolkit\;D:\software\mysql-5.7.21-winx64\mysql-5.7.21-winx64\bin;D:\software\TortoiseSVN\bin;D:\software\TortoiseGit\bin;D:\software\Rational\common;D:\software\Redis\;%ERLANG_HOME%\bin;D:\software\nodejs\;D:\software\Anaconda3;D:\software\Anaconda3\Library\mingw-w64\bin;D:\software\Anaconda3\Library\usr\bin;D:\software\Anaconda3\Library\bin;D:\software\Anaconda3\Scripts;C:\Users\zyz1010561415\AppData\Local\Microsoft\WindowsApps;D:\software\Bandizip\;D:\software\IntelliJ IDEA 2019.3.3\bin;;D:\software\PyCharm 2019.2.4\bin;;;D:\software\Microsoft VS Code\bin;C:\Users\zyz1010561415\AppData\Roaming\npm;."/>
    <property name="java.specification.name" value="Java Platform API Specification"/>
    <property name="java.class.version" value="52.0"/>
    <property name="sun.management.compiler" value="HotSpot 64-Bit Tiered Compilers"/>
    <property name="idea.version2019.3.3" value="true"/>
    <property name="os.version" value="10.0"/>
    <property name="user.home" value="C:\Users\zyz1010561415"/>
    <property name="user.timezone" value="Asia/Shanghai"/>
    <property name="java.awt.printerjob" value="sun.awt.windows.WPrinterJob"/>
    <property name="java.specification.version" value="1.8"/>
    <property name="file.encoding" value="UTF-8"/>
    <property name="user.name" value="zyz1010561415"/>
    <property name="java.class.path" value="D:\software\SSM\apache-maven-3.3.9-bin\apache-maven-3.3.9\boot\plexus-classworlds-2.5.2.jar;D:\software\IntelliJ IDEA 2019.3.3\lib\idea_rt.jar"/>
    <property name="java.vm.specification.version" value="1.8"/>
    <property name="sun.arch.data.model" value="64"/>
    <property name="java.home" value="C:\Program Files\Java\jdk1.8.0_241\jre"/>
    <property name="sun.java.command" value="org.codehaus.classworlds.Launcher -Didea.version2019.3.3 -s D:\software\SSM\apache-maven-3.3.9-bin\settings.xml test"/>
    <property name="java.specification.vendor" value="Oracle Corporation"/>
    <property name="user.language" value="zh"/>
    <property name="awt.toolkit" value="sun.awt.windows.WToolkit"/>
    <property name="java.vm.info" value="mixed mode"/>
    <property name="java.version" value="1.8.0_241"/>
    <property name="java.ext.dirs" value="C:\Program Files\Java\jdk1.8.0_241\jre\lib\ext;C:\WINDOWS\Sun\Java\lib\ext"/>
    <property name="sun.boot.class.path" value="C:\Program Files\Java\jdk1.8.0_241\jre\lib\resources.jar;C:\Program Files\Java\jdk1.8.0_241\jre\lib\rt.jar;C:\Program Files\Java\jdk1.8.0_241\jre\lib\sunrsasign.jar;C:\Program Files\Java\jdk1.8.0_241\jre\lib\jsse.jar;C:\Program Files\Java\jdk1.8.0_241\jre\lib\jce.jar;C:\Program Files\Java\jdk1.8.0_241\jre\lib\charsets.jar;C:\Program Files\Java\jdk1.8.0_241\jre\lib\jfr.jar;C:\Program Files\Java\jdk1.8.0_241\jre\classes"/>
    <property name="java.vendor" value="Oracle Corporation"/>
    <property name="maven.home" value="D:\software\SSM\apache-maven-3.3.9-bin\apache-maven-3.3.9"/>
    <property name="file.separator" value="\"/>
    <property name="java.vendor.url.bug" value="http://bugreport.sun.com/bugreport/"/>
    <property name="sun.cpu.endian" value="little"/>
    <property name="sun.io.unicode.encoding" value="UnicodeLittle"/>
    <property name="sun.desktop" value="windows"/>
    <property name="sun.cpu.isalist" value="amd64"/>
  </properties>
  <testcase classname="com.bosssoft.hr.train.j2se.basic.example.collection.LinkedListExampleImplTest" name="synchronizedVisit" time="0.001"/>
  <testcase classname="com.bosssoft.hr.train.j2se.basic.example.collection.LinkedListExampleImplTest" name="append" time="0"/>
  <testcase classname="com.bosssoft.hr.train.j2se.basic.example.collection.LinkedListExampleImplTest" name="addFirst" time="0"/>
  <testcase classname="com.bosssoft.hr.train.j2se.basic.example.collection.LinkedListExampleImplTest" name="insert" time="0"/>
  <testcase classname="com.bosssoft.hr.train.j2se.basic.example.collection.LinkedListExampleImplTest" name="toArray" time="0"/>
  <testcase classname="com.bosssoft.hr.train.j2se.basic.example.collection.LinkedListExampleImplTest" name="remove" time="0"/>
  <testcase classname="com.bosssoft.hr.train.j2se.basic.example.collection.LinkedListExampleImplTest" name="get" time="0.001"/>
  <testcase classname="com.bosssoft.hr.train.j2se.basic.example.collection.LinkedListExampleImplTest" name="pop" time="0"/>
  <testcase classname="com.bosssoft.hr.train.j2se.basic.example.collection.LinkedListExampleImplTest" name="push" time="0"/>
  <testcase classname="com.bosssoft.hr.train.j2se.basic.example.collection.LinkedListExampleImplTest" name="sort" time="0.001"/>
  <testcase classname="com.bosssoft.hr.train.j2se.basic.example.collection.LinkedListExampleImplTest" name="offer" time="0"/>
  <testcase classname="com.bosssoft.hr.train.j2se.basic.example.collection.LinkedListExampleImplTest" name="sort2" time="0.001"/>
  <testcase classname="com.bosssoft.hr.train.j2se.basic.example.collection.LinkedListExampleImplTest" name="listByIndex" time="0"/>
  <testcase classname="com.bosssoft.hr.train.j2se.basic.example.collection.LinkedListExampleImplTest" name="listByIterator" time="0.001"/>
</testsuite>