D:\wendang\ideaworkplace\bosssoft-train-example\train-j2se-basic-example\src\test\java\com\bosssoft\hr\train\j2se\basic\example\collection\TreeSetExampleImplTest.java
D:\wendang\ideaworkplace\bosssoft-train-example\train-j2se-basic-example\src\test\java\com\bosssoft\hr\train\j2se\basic\example\thread\ThreadPoolExampleTest.java
D:\wendang\ideaworkplace\bosssoft-train-example\train-j2se-basic-example\src\test\java\com\bosssoft\hr\train\j2se\basic\example\collection\ConcurrentHashMapExampleImplTest.java
D:\wendang\ideaworkplace\bosssoft-train-example\train-j2se-basic-example\src\test\java\com\bosssoft\hr\train\j2se\basic\example\collection\LinkedListExampleImplTest.java
D:\wendang\ideaworkplace\bosssoft-train-example\train-j2se-basic-example\src\test\java\com\bosssoft\hr\train\j2se\basic\example\xml\SAXOperationTest.java
D:\wendang\ideaworkplace\bosssoft-train-example\train-j2se-basic-example\src\test\java\com\bosssoft\hr\train\j2se\basic\example\collection\ArrayListExampleImplTest.java
D:\wendang\ideaworkplace\bosssoft-train-example\train-j2se-basic-example\src\test\java\com\bosssoft\hr\train\j2se\basic\example\collection\StackExampleImplTest.java
D:\wendang\ideaworkplace\bosssoft-train-example\train-j2se-basic-example\src\test\java\com\bosssoft\hr\train\j2se\basic\example\collection\HashMapExampleImplTest.java
D:\wendang\ideaworkplace\bosssoft-train-example\train-j2se-basic-example\src\test\java\com\bosssoft\hr\train\j2se\basic\example\xml\DOMOperationTest.java
D:\wendang\ideaworkplace\bosssoft-train-example\train-j2se-basic-example\src\test\java\com\bosssoft\hr\train\j2se\basic\example\collection\QueueExampleImplTest.java
D:\wendang\ideaworkplace\bosssoft-train-example\train-j2se-basic-example\src\test\java\com\bosssoft\hr\train\j2se\basic\example\annotation\BaseModelTest.java
